{
  "goyo.vim": { "branch": "master", "commit": "fa0263d456dd43f5926484d1c4c7022dfcb21ba9" },
  "lazy.nvim": { "branch": "main", "commit": "cf8ecc2c5e4332760431a33534240b0cbc6680ab" },
  "limelight.vim": { "branch": "master", "commit": "0c8cc7f503a775c505dc9c67f1f5041ab4d5f1fd" },
  "lualine.nvim": { "branch": "master", "commit": "b431d228b7bbcdaea818bdc3e25b8cdbe861f056" },
  "nord.nvim": { "branch": "master", "commit": "80c1e5321505aeb22b7a9f23eb82f1e193c12470" },
  "nvim-autopairs": { "branch": "master", "commit": "ee297f215e95a60b01fde33275cc3c820eddeebe" },
  "nvim-highlight-colors": { "branch": "main", "commit": "a411550ef85cae467b889ba7d1a96bd78332d90e" },
  "nvim-tree.lua": { "branch": "master", "commit": "120ba58254835d412bbc91cffe847e9be835fadd" },
  "nvim-treesitter": { "branch": "master", "commit": "1c111e3e8f42c85b16cb4bf30e4254fcb5607817" },
  "nvim-web-devicons": { "branch": "master", "commit": "19d257cf889f79f4022163c3fbb5e08639077bd8" },
  "plenary.nvim": { "branch": "master", "commit": "2d9b06177a975543726ce5c73fca176cedbffe9d" },
  "telescope.nvim": { "branch": "master", "commit": "a0bbec21143c7bc5f8bb02e0005fa0b982edc026" }
}
